ggRunoff: Visualisation of rainfall-runoff process lines using ggplot2 syntax • ggRunoff
…
Rainfall-runoff process lines

Firstly, load ggRunoff package and runoff_data.

library(ggRunoff)

data("runoff_data", package = "ggRunoff")

# add a flood type
runoff_data$flood_type = c(rep('flood_1', 400), rep('flood_2', 344))

Check runoff_data.

tibble::tibble(runoff_data)
#> # A tibble: 744 x 4
#>   time                 prcp     Q flood_type
#>   <dttm>              <dbl> <dbl> <chr>     
#> 1 2010-05-01 00:00:00     0  73.3 flood_1   
#> 2 2010-05-01 01:00:00     0  72.8 flood_1   
#> 3 2010-05-01 02:00:00     0  72.9 flood_1   
#> 4 2010-05-01 03:00:00     0  73.3 flood_1   
#> 5 2010-05-01 04:00:00     0  69.8 flood_1   
#> # i 739 more rows
…
