…
``` r
library(ggRunoff)

data("runoff_data", package = "ggRunoff")

# add a flood type
runoff_data$flood_type = c(rep('flood_1', 400), rep('flood_2', 344))
```

Check `runoff_data`.

``` r
tibble::tibble(runoff_data)
#> # A tibble: 744 x 4
#>    time                 prcp     Q flood_type
#>    <dttm>              <dbl> <dbl> <chr>     
#>  1 2010-05-01 00:00:00     0  73.3 flood_1   
#>  2 2010-05-01 01:00:00     0  72.8 flood_1   
#>  3 2010-05-01 02:00:00     0  72.9 flood_1   
#>  4 2010-05-01 03:00:00     0  73.3 flood_1   
#>  5 2010-05-01 04:00:00     0  69.8 flood_1   
#>  6 2010-05-01 05:00:00     0  66.2 flood_1   
#>  7 2010-05-01 06:00:00     0  66.3 flood_1   
#>  8 2010-05-01 07:00:00     0  66.3 flood_1   
#>  9 2010-05-01 08:00:00     0  66.2 flood_1   
#> 10 2010-05-01 09:00:00     0  66.1 flood_1   
#> # ... with 734 more rows
```
…
